X Y
132 125
132 125
132 125
132 125
132 125
132 125
132 125
132 125
132 125
132 125
132 125
132 125
132 125
132 125
132 125
132 125
132 125
132 125
132 125
132 125
132 125
132 125
132 125
132 125
132 125
132 125
132 125
132 125
132 125
132 125
132 125
132 125
132 125
132 125
132 125
132 125
132 125
132 125
132 125
132 125
132 125
132 125
132 125
132 125
132 125
132 125
132 125
132 125
132 125
132 125
131 125
132 125
132 125
132 125
132 125
132 125
132 125
132 125
132 125
132 125
132 125
132 125
132 125
132 125
132 125
132 125
132 125
132 125
132 125
132 125
132 125
132 125
132 125
132 125
132 125
132 125
132 125
132 125
132 125
132 125
132 125
132 125
132 125
132 125
132 125
132 125
132 125
132 125
132 125
132 125
132 125
132 125
132 125
132 125
132 125
132 125
132 125
132 125
132 125
132 125
132 125
132 125
132 125
132 125
132 125
132 125
132 125
132 125
132 125
132 125
132 125
132 125
132 125
132 125
132 125
132 125
132 125
132 125
132 125
132 125
132 125
132 125
132 125
132 125
132 125
132 125
132 125
132 125
132 125
132 125
132 125
132 125
132 125
132 125
132 125
132 125
132 125
132 125
132 125
132 125
132 125
132 125
132 125
132 125
132 125
132 125
132 125
132 125
132 125
132 125
132 125
132 125
132 125
132 125
132 125
132 125
132 125
132 125
132 125
132 125
132 125
132 125
132 125
132 125
132 125
132 125
132 125
132 125
132 125
132 125
132 125
132 125
132 125
132 125
132 125
132 125
132 125
132 125
132 125
132 125
132 125
132 125
132 125
132 125
132 125
132 125
132 125
132 125
132 125
132 125
132 125
132 125
132 125
132 125
132 125
132 125
132 125
132 125
132 125
132 125
132 125
132 125
132 125
132 125
132 125
132 125
132 125
132 125
132 125
132 125
132 125
132 125
132 125
132 125
132 125
132 125
132 125
132 125
132 125
132 125
132 125
132 125
132 125
132 125
132 125
132 125
132 125
131 125
132 125
132 125
132 125
132 125
132 125
132 125
132 125
132 125
131 125
132 125
131 125
131 125
132 125
132 125
128 125
128 125
127 125
127 125
127 125
126 125
125 125
125 125
124 125
124 125
124 125
123 125
123 125
122 125
121 125
120 125
119 125
118 125
118 125
118 125
118 125
118 125
118 125
118 125
118 125
118 125
118 125
118 125
118 125
118 125
118 125
118 124
118 124
118 123
118 123
117 123
117 123
116 123
116 122
115 121
114 121
113 121
112 119
112 118
112 118
111 117
111 117
111 117
111 117
111 117
111 116
111 116
111 115
111 115
110 115
110 115
110 115
110 115
110 115
110 115
110 115
110 115
110 115
110 115
110 115
110 115
110 115
110 115
110 115
110 115
110 115
110 114
110 114
110 114
110 113
110 111
110 110
110 108
110 107
110 106
109 106
109 104
108 100
107 95
107 94
107 92
106 88
106 85
106 83
106 81
106 80
106 77
105 75
105 72
105 69
105 66
105 64
105 61
105 59
105 56
105 54
105 54
105 54
105 54
105 53
105 53
105 53
105 52
106 52
106 52
105 52
106 52
106 52
106 52
107 52
107 52
109 52
109 52
110 52
111 52
111 52
112 52
113 52
114 52
115 52
116 52
117 52
117 52
118 52
118 52
118 52
119 52
120 52
122 52
123 52
124 52
125 52
126 52
127 52
129 52
131 52
134 52
134 52
135 52
135 52
136 52
136 52
137 52
138 52
139 52
141 52
144 52
144 52
145 52
146 52
147 52
147 52
147 52
148 52
149 52
151 52
152 52
153 52
155 52
156 52
157 52
158 52
159 52
161 52
161 52
162 52
162 52
163 52
164 52
165 52
166 52
168 52
168 52
168 53
170 54
173 54
174 54
174 54
175 54
176 55
177 57
179 59
180 60
182 61
184 62
184 63
184 64
184 65
185 67
186 69
187 72
188 75
188 77
189 78
189 80
190 82
191 82
191 84
192 87
192 90
192 92
193 94
194 95
194 96
195 97
195 100
196 104
196 105
196 106
196 106
197 107
197 107
197 109
197 112
197 114
197 115
197 116
197 118
197 121
197 122
197 122
197 123
197 123
197 123
197 124
197 126
197 126
197 127
197 128
197 128
197 129
197 130
197 131
197 133
197 133
197 135
197 136
197 137
197 139
197 140
197 142
197 141
197 142
196 143
196 144
195 145
195 146
194 147
193 149
192 151
192 154
191 154
191 155
190 155
189 156
188 158
188 159
187 161
185 163
184 164
184 164
183 165
181 167
180 169
178 171
177 172
176 174
175 177
173 177
173 179
170 182
169 183
168 185
166 186
164 189
163 192
162 193
162 195
161 197
161 198
159 198
158 198
158 198
157 198
156 198
154 198
151 199
149 199
147 199
146 199
145 199
142 199
138 199
136 200
135 200
134 200
134 201
130 201
127 201
126 202
125 201
124 201
122 201
119 201
118 201
117 201
116 201
113 201
111 201
109 201
106 201
103 201
101 201
100 201
98 201
96 201
95 201
94 201
90 201
86 201
84 201
82 201
79 201
78 201
77 201
76 201
73 201
70 201
69 201
68 201
66 201
65 201
62 201
59 201
58 201
56 201
55 201
52 201
49 201
49 201
49 201
48 201
48 201
46 201
43 201
39 200
38 199
37 199
36 198
34 198
33 196
33 193
32 189
32 185
29 183
27 177
26 175
25 170
24 165
23 164
22 160
21 155
20 154
20 146
19 143
19 141
18 137
18 129
17 125
17 123
16 119
14 114
14 107
13 106
12 101
12 95
11 91
11 85
10 81
10 78
10 75
10 72
9 67
9 64
9 63
9 62
9 62
9 62
9 62
9 61
9 61
9 60
9 59
10 58
10 55
10 54
11 54
13 54
15 53
17 51
18 48
19 46
20 43
21 40
23 38
24 37
26 36
27 35
29 33
32 33
33 30
33 25
34 25
37 24
38 23
41 22
47 20
48 19
49 17
50 16
55 14
57 11
59 10
62 9
65 8
67 8
69 8
70 7
75 7
77 6
79 4
82 0
84 0
91 0
95 0
96 0
99 0
101 0
105 0
109 0
113 0
117 0
118 0
123 0
125 0
127 0
133 0
135 0
136 0
140 0
145 0
147 0
149 0
153 0
157 0
161 0
163 0
167 0
171 0
175 3
178 6
184 7
185 7
189 8
192 9
195 9
197 10
199 14
202 17
205 19
211 19
213 21
214 24
219 25
221 25
223 28
225 33
226 34
228 35
231 37
234 38
235 41
236 46
240 50
241 54
244 54
245 58
246 61
248 64
248 67
250 72
251 75
252 78
254 81
255 83
255 86
255 91
255 94
255 96
255 103
255 106
255 106
255 107
255 110
255 113
255 115
255 117
255 118
255 121
255 122
255 123
255 124
255 125
255 126
255 127
255 128
255 130
255 134
255 137
255 139
255 140
255 141
255 141
255 142
255 143
255 144
255 145
255 147
255 149
255 151
255 154
255 155
255 155
255 156
255 158
255 160
255 163
255 164
255 164
255 165
255 168
255 170
255 172
255 176
255 177
255 178
255 182
255 183
254 184
253 186
252 189
251 191
251 193
250 194
249 196
249 198
248 198
248 199
247 199
247 200
246 204
246 206
245 206
244 207
242 210
240 213
240 213
239 215
238 216
237 216
235 217
233 217
232 218
230 220
229 221
228 222
228 224
227 226
225 227
224 228
223 228
223 229
223 229
222 231
222 233
220 233
219 234
217 235
216 236
214 237
213 237
213 237
212 238
212 238
211 238
207 238
205 238
204 239
203 239
201 240
200 242
198 244
197 247
196 248
195 248
192 249
191 249
190 250
188 250
188 250
186 250
184 251
184 251
183 251
180 251
178 252
177 252
175 252
175 252
173 253
172 253
169 253
168 254
168 254
166 254
165 255
163 255
162 255
162 255
161 255
159 255
157 255
156 255
154 255
151 255
149 255
147 255
147 255
146 255
145 255
144 255
143 255
141 255
138 255
137 255
136 255
136 255
135 255
134 255
133 255
129 255
127 255
126 255
125 255
124 255
123 255
121 255
119 255
118 255
118 255
117 255
116 255
114 255
112 255
111 255
110 255
108 255
106 255
105 255
102 255
101 255
100 255
100 255
99 255
98 255
97 255
96 255
96 255
95 255
95 254
93 254
91 253
89 253
87 253
85 252
84 252
83 252
82 252
80 252
79 252
78 251
78 251
77 251
77 251
77 251
76 251
74 250
71 250
70 250
70 250
69 250
69 250
69 249
68 249
68 249
67 248
66 248
66 248
65 247
64 245
63 244
62 243
60 241
59 241
58 240
57 239
56 238
55 238
54 238
51 238
50 237
49 237
49 237
49 237
48 237
48 237
48 236
48 235
47 234
45 233
43 233
40 233
39 230
38 229
38 229
37 228
36 228
34 227
33 226
33 224
33 222
33 221
32 220
32 219
32 218
30 217
27 217
27 217
26 216
25 216
25 215
23 215
23 215
22 213
22 212
21 212
21 210
20 208
19 207
19 206
18 206
18 206
17 205
17 202
15 200
14 199
13 199
12 198
11 198
10 197
10 195
9 194
9 192
8 188
6 186
6 184
5 183
5 181
5 178
4 177
4 176
3 175
3 172
3 170
2 169
2 167
1 165
0 164
0 164
0 162
0 160
0 159
0 157
0 156
0 155
0 155
0 154
0 153
0 149
0 148
0 147
0 146
0 145
0 145
0 145
0 145
0 145
0 145
0 145
0 145
0 145
0 144
0 144
0 145
0 145
0 144
0 145
0 145
0 145
0 145
0 145
2 144
3 145
4 145
5 145
7 145
9 145
9 145
10 145
13 145
16 145
18 145
19 145
21 145
24 145
26 145
28 145
32 145
33 145
34 145
38 145
40 145
47 145
48 145
49 145
55 145
57 145
61 145
67 145
75 145
90 145
99 144
102 142
105 141
107 141
108 140
109 140
109 140
110 140
110 140
110 140
110 139
110 139
111 138
111 138
112 138
112 137
112 137
113 137
113 136
114 136
115 134
116 133
117 132
118 130
118 129
118 128
119 128
121 128
122 127
122 127
123 127
124 126
124 127
124 127
124 127
124 127
124 127
124 127
125 127
125 127
125 127
126 127
126 127
126 127
126 127
126 127
126 126
126 126
126 126
126 126
126 126
126 127
126 126
126 126
126 126
126 126
126 127
126 127
126 126
126 126
126 126
126 127
126 127
126 127
126 126
126 126
126 127
126 127
126 127
126 126
126 127
126 127
126 126
126 126
126 127
126 127
126 127
126 127
126 127
126 126
126 127
126 127
126 127
126 127
126 127
126 127
126 127
126 126
126 127
126 127
126 127
126 127
126 126
126 126
126 126
126 127
126 126
126 126
126 127
126 127
126 127
126 127
126 127
126 126
126 126
126 126
126 127
126 127
126 126
126 127
126 127
126 126
126 127
126 127
126 127
126 127
126 126
126 127
126 127
126 126
126 127
126 126
126 126
126 127
126 127
126 126
126 126
126 126
126 127
126 126
126 127
126 126
126 126
126 126
126 127
126 126
126 127
126 126
126 127
126 126
126 127
126 127
126 126
126 127
126 127
126 127
126 126
126 127
126 127
126 126
126 126
126 127
126 126
126 126
126 126
126 127
126 126
126 126
126 126
126 126
126 126
126 126
126 127
126 126
126 126
126 127
126 126
126 126
126 127
126 127
126 127
126 126
126 127
126 126
126 127
126 126
126 127
126 126
126 126
126 126
126 127
126 126
126 126
126 127
126 126
126 127
126 127
126 126
126 126
126 127
126 127
126 127
126 127
126 127
126 127
126 127
126 127
126 126
126 126
126 127
126 127
126 127
126 126
126 126
126 127
126 126
126 126
126 127
126 126
126 127
126 127
126 127
126 126
126 127
126 127
126 126
126 127
126 126
126 127
126 127
126 127
126 127
126 126
126 126
126 127
126 127
126 126
126 127
126 126
126 127
126 127
126 127
126 127
126 127
126 127
126 126
126 127
126 126
126 127
126 126
126 126
126 126
126 126
126 127
126 126
126 127
126 127
126 127
126 127
126 126
126 127
126 127
126 127
126 127
126 127
126 127
126 127
126 127
126 126
126 127
126 126
126 127
126 127
126 126
126 127
126 126
126 127
126 126
126 127
126 127
126 127
126 127
126 126
126 126
126 126
126 127
126 127
126 127
126 126
126 127
126 127
126 126
126 126
126 127
126 126
126 127
126 127
126 127
126 127
126 127
126 126
126 127
126 126
126 126
126 127
126 127
126 127
126 127
126 126
126 126
126 127
126 127
126 126
126 126
126 126
126 127
126 126
126 126
126 127
126 127
126 126
126 127
126 126
126 127
126 127
126 126
126 127
126 127
126 126
126 127
126 127
126 127
126 127
126 127
126 127
126 127
126 127
126 126
126 127
126 126
126 127
126 127
126 127
126 126
126 127
126 127
126 126
126 127
126 127
126 127
126 127
126 127
126 126
126 126
126 126
126 126
126 127
126 127
126 127
126 126
126 126
126 127
126 127
126 126
126 126
126 126
126 127
126 126
126 127
126 127
126 126
126 126
126 127
126 127
126 126
126 126
126 126
126 126
126 127
126 127
126 126
126 126
126 126
126 127
126 126
126 127
126 126
126 127
126 126
126 126
126 127
126 126
126 126
126 127
126 127
126 126
126 126
126 127
126 126
126 126
126 127
126 127
126 127
126 126
126 126
126 126
126 126
126 127
126 127
126 126
126 127
126 126
126 127
126 126
126 127
126 127
126 127
