X	Y
1	7913
2	7847
3	7859
4	7845
5	7805
6	7499
7	7614
8	7381
9	7223
10	7339
11	7161
12	7050
13	6913
14	7241
15	7751
16	7661
17	7920
18	7857
19	7876
20	7778
21	7530
22	7643
23	7649
24	7880
25	8124
26	7702
27	7725
28	7723
29	7499
30	7454
31	7780
32	7805
33	7434
34	7454
35	7660
36	7814
37	7903
38	8151
39	7758
40	7749
41	7765
42	7359
43	7697
44	8066
45	8130
46	7556
47	7788
48	8093
49	7750
50	7908
51	7871
52	7694
53	7396
54	7712
55	8114
56	7785
57	7910
58	8225
59	7870
60	7677
61	7469
62	7925
63	7917
64	7722
65	7777
66	7881
67	7487
68	7434
69	7617
70	7545
71	7572
72	7918
73	7819
74	7935
75	7738
76	7854
77	7732
78	7818
79	7886
80	7736
81	7799
82	7881
83	7770
84	7796
85	7771
86	7796
87	7841
88	7729
89	8062
90	7755
91	7813
92	7487
93	7760
94	7740
95	7719
96	7709
97	7510
98	7753
99	7821
100	7784
101	7754
102	7754
103	7748
104	7713
105	7729
106	7687
107	7714
108	7760
109	7886
110	7830
111	7856
112	7821
113	7935
114	7899
115	7842
116	7888
117	7919
118	7864
119	7866
120	7893
121	7910
122	7813
123	7690
124	7899
125	7861
126	7881
127	7890
128	7875
129	7869
130	7860
131	7835
132	7816
133	7859
134	7795
135	7829
136	7857
137	7850
138	7910
139	7758
140	7994
141	8366
142	8063
143	7787
144	8104
145	7806
146	7972
147	7523
148	7398
149	7781
150	7761
151	7891
152	7880
153	7765
154	7796
155	7680
156	7818
157	7880
158	7724
159	8043
160	7774
161	8111
162	7838
163	7816
164	7836
165	7969
166	8135
167	7757
168	7871
169	7566
170	7487
171	7841
172	7969
173	7729
174	8067
175	7734
176	7752
177	8064
178	7978
179	8063
180	7727
181	8027
182	7769
183	7993
184	7755
185	8000
186	7686
187	8018
188	8140
189	7916
190	7869
191	7884
192	8070
193	8375
194	8068
195	7694
196	7569
197	7519
198	7766
199	8060
200	8150
201	7508
202	7461
203	7632
204	7937
205	8173
206	7545
207	7614
208	7570
209	7485
210	7802
211	8085
212	8154
213	7708
214	7860
215	7462
216	7750
217	7751
218	7878
219	7683
220	7956
221	7877
222	7747
223	7755
224	7830
225	7827
226	7862
227	7853
228	7890
229	7857
230	7743
231	8393
232	8020
233	8055
234	8110
235	7986
236	7979
237	8246
238	8005
239	7684
240	7813
241	7772
242	7814
243	7784
244	7779
245	7933
246	7806
247	7896
248	7932
249	7711
250	7710
251	7883
252	7931
253	7896
254	8083
255	7860
256	7899
257	7731
258	7804
259	7783
260	7776
261	7916
262	7714
263	7691
264	7676
265	7760
266	7630
267	7668
268	7901
269	7909
270	7935
271	7906
272	7707
273	7918
274	7906
275	7917
276	7692
277	7855
278	7918
279	7903
280	7699
281	7706
282	7624
283	7908
284	7884
285	7616
286	7629
287	7933
288	7844
289	7770
290	8159
291	8108
292	7898
293	7735
294	7900
295	7595
296	7685
297	7550
298	7887
299	7826
300	7855
301	7879
302	7553
303	7903
304	7537
305	7736
306	7900
307	7772
308	7758
309	8016
310	7451
311	7491
312	7517
313	7761
314	7801
315	7796
316	7873
317	7883
318	7886
319	7846
320	7720
321	7726
322	8191
323	7699
324	7898
325	8004
326	7718
327	7504
328	7866
329	7498
330	7579
331	7791
332	7844
333	7808
334	7855
335	7737
336	7791
337	8037
338	7431
339	7700
340	7801
341	7889
342	7787
343	8103
344	7729
345	7797
346	7779
347	7873
348	8121
349	8157
350	7843
351	7782
352	7772
353	7700
354	7864
355	7895
356	7858
357	8142
358	8110
359	7978
360	7787
361	8070
362	7858
363	7919
364	7708
365	7890
366	7830
367	8054
368	8135
369	8028
370	8063
371	7903
372	8105
373	8150
374	7729
375	7742
376	7768
377	7990
